﻿Build started 03/03/2016 13:17:08.
     1>Project "C:\SDL\teaching\3p2y\15_16\osman\Particle Simulation V0.6.4\sample.vcxproj" on node 2 (Build target(s)).
     1>AddCudaCompileDeps:
         C:\Program Files (x86)\Microsoft Visual Studio 11.0\VC\bin\cl.exe /E /nologo /showIncludes /TP /D__CUDACC__ /DWIN32 /D_DEBUG /D_WINDOWS /D_MBCS /I"C:\ProgramData\NVIDIA Corporation\CUDA Samples\v7.5\common\inc" /I"C:\Program Files\NVIDIA GPU Computing Toolkit\CUDA\v7.5\include" /I"C:\Program Files\NVIDIA GPU Computing Toolkit\CUDA\v7.5\include" /I"C:\ProgramData\NVIDIA Corporation\CUDA Samples\v7.5\common\inc" /I"C:\Program Files\NVIDIA GPU Computing Toolkit\CUDA\v7.5\bin" /I"C:\Program Files\NVIDIA GPU Computing Toolkit\CUDA\v7.5\include" /I. /FIcuda_runtime.h /c "C:\SDL\teaching\3p2y\15_16\osman\Particle Simulation V0.6.4\CUDA\ParticleSystem.cu" 
       CudaBuild:
         Compiling CUDA source file CUDA\ParticleSystem.cu...
         cmd.exe /C "C:\Users\sdl\AppData\Local\Temp\tmp69a149765a714377bb625d44c0358164.cmd"
         "C:\Program Files\NVIDIA GPU Computing Toolkit\CUDA\v7.5\bin\nvcc.exe" -gencode=arch=compute_35,code=\"sm_35,compute_35\" --use-local-env --cl-version 2012 -ccbin "C:\Program Files (x86)\Microsoft Visual Studio 11.0\VC\bin"  -I"C:\ProgramData\NVIDIA Corporation\CUDA Samples\v7.5\common\inc" -I"C:\Program Files\NVIDIA GPU Computing Toolkit\CUDA\v7.5\include" -I"C:\Program Files\NVIDIA GPU Computing Toolkit\CUDA\v7.5\include" -I"C:\ProgramData\NVIDIA Corporation\CUDA Samples\v7.5\common\inc" -I"C:\Program Files\NVIDIA GPU Computing Toolkit\CUDA\v7.5\include"  -G   --keep-dir Debug -maxrregcount=0  --machine 32 --compile -cudart static  -g   -DWIN32 -D_DEBUG -D_WINDOWS -D_MBCS -Xcompiler "/EHsc /W3 /nologo /Od /Zi /RTC1 /MDd " -o Debug\ParticleSystem.cu.obj "C:\SDL\teaching\3p2y\15_16\osman\Particle Simulation V0.6.4\CUDA\ParticleSystem.cu"
         
         C:\SDL\teaching\3p2y\15_16\osman\Particle Simulation V0.6.4>"C:\Program Files\NVIDIA GPU Computing Toolkit\CUDA\v7.5\bin\nvcc.exe" -gencode=arch=compute_35,code=\"sm_35,compute_35\" --use-local-env --cl-version 2012 -ccbin "C:\Program Files (x86)\Microsoft Visual Studio 11.0\VC\bin"  -I"C:\ProgramData\NVIDIA Corporation\CUDA Samples\v7.5\common\inc" -I"C:\Program Files\NVIDIA GPU Computing Toolkit\CUDA\v7.5\include" -I"C:\Program Files\NVIDIA GPU Computing Toolkit\CUDA\v7.5\include" -I"C:\ProgramData\NVIDIA Corporation\CUDA Samples\v7.5\common\inc" -I"C:\Program Files\NVIDIA GPU Computing Toolkit\CUDA\v7.5\include"  -G   --keep-dir Debug -maxrregcount=0  --machine 32 --compile -cudart static  -g   -DWIN32 -D_DEBUG -D_WINDOWS -D_MBCS -Xcompiler "/EHsc /W3 /nologo /Od /Zi /RTC1 /MDd " -o Debug\ParticleSystem.cu.obj "C:\SDL\teaching\3p2y\15_16\osman\Particle Simulation V0.6.4\CUDA\ParticleSystem.cu" 
     1>c:\sdl\teaching\3p2y\15_16\osman\particle simulation v0.6.4\cuda\../CUDA/ParticleSystem.cuh(13): warning C4005: 'CUDA_VERSION' : macro redefinition
     1>C:/SDL/teaching/3p2y/15_16/osman/Particle Simulation V0.6.4/CUDA/ParticleSystem.cu(502): warning : a __device__ function("W_poly6") redeclared with __host__ __device__, hence treated as a __host__ __device__ function
     1>C:/SDL/teaching/3p2y/15_16/osman/Particle Simulation V0.6.4/CUDA/ParticleSystem.cu(846): warning : a __device__ function("influenceSummation") redeclared with __host__ __device__, hence treated as a __host__ __device__ function
     1>C:/SDL/teaching/3p2y/15_16/osman/Particle Simulation V0.6.4/CUDA/ParticleSystem.cu(886): warning : a __device__ function("VertexInterp") redeclared with __host__ __device__, hence treated as a __host__ __device__ function
     1>C:/SDL/teaching/3p2y/15_16/osman/Particle Simulation V0.6.4/CUDA/ParticleSystem.cu(946): warning : variable "temp" was declared but never referenced
     1>c:\sdl\teaching\3p2y\15_16\osman\particle simulation v0.6.4\cuda\../CUDA/ParticleSystem.cuh(13): warning C4005: 'CUDA_VERSION' : macro redefinition
     1>C:/SDL/teaching/3p2y/15_16/osman/Particle Simulation V0.6.4/CUDA/ParticleSystem.cu(946): warning : variable "temp" was declared but never referenced
     1>c:\sdl\teaching\3p2y\15_16\osman\particle simulation v0.6.4\glm\core\_swizzle.hpp(64): warning : function "glm::detail::_swizzle_base0<T, N>::elem(size_t) const [with T=T, N=2]" was referenced but not defined
     1>c:\sdl\teaching\3p2y\15_16\osman\particle simulation v0.6.4\glm\core\_swizzle.hpp(64): warning : function "glm::detail::_swizzle_base0<T, N>::elem(size_t) const [with T=T, N=3]" was referenced but not defined
     1>c:\sdl\teaching\3p2y\15_16\osman\particle simulation v0.6.4\glm\core\_swizzle.hpp(64): warning : function "glm::detail::_swizzle_base0<T, N>::elem(size_t) const [with T=T, N=4]" was referenced but not defined
         ParticleSystem.cu
     1>C:/SDL/teaching/3p2y/15_16/osman/Particle Simulation V0.6.4/CUDA/ParticleSystem.cu(325): warning C4244: '=' : conversion from 'int' to 'float', possible loss of data
     1>C:/SDL/teaching/3p2y/15_16/osman/Particle Simulation V0.6.4/CUDA/ParticleSystem.cu(336): warning C4244: '=' : conversion from 'float' to 'int', possible loss of data
     1>C:/SDL/teaching/3p2y/15_16/osman/Particle Simulation V0.6.4/CUDA/ParticleSystem.cu(337): warning C4244: '=' : conversion from 'double' to 'int', possible loss of data
     1>C:/SDL/teaching/3p2y/15_16/osman/Particle Simulation V0.6.4/CUDA/ParticleSystem.cu(348): warning C4244: '=' : conversion from 'double' to 'int', possible loss of data
     1>C:/SDL/teaching/3p2y/15_16/osman/Particle Simulation V0.6.4/CUDA/ParticleSystem.cu(360): warning C4305: '=' : truncation from 'double' to 'float'
     1>C:/SDL/teaching/3p2y/15_16/osman/Particle Simulation V0.6.4/CUDA/ParticleSystem.cu(374): warning C4244: 'initializing' : conversion from 'float' to 'int', possible loss of data
     1>C:/SDL/teaching/3p2y/15_16/osman/Particle Simulation V0.6.4/CUDA/ParticleSystem.cu(375): warning C4244: 'initializing' : conversion from 'float' to 'int', possible loss of data
     1>C:/SDL/teaching/3p2y/15_16/osman/Particle Simulation V0.6.4/CUDA/ParticleSystem.cu(388): warning C4244: 'initializing' : conversion from 'float' to 'int', possible loss of data
     1>C:/SDL/teaching/3p2y/15_16/osman/Particle Simulation V0.6.4/CUDA/ParticleSystem.cu(389): warning C4244: 'initializing' : conversion from 'float' to 'int', possible loss of data
     1>C:/SDL/teaching/3p2y/15_16/osman/Particle Simulation V0.6.4/CUDA/ParticleSystem.cu(390): warning C4244: 'initializing' : conversion from 'float' to 'int', possible loss of data
     1>C:/SDL/teaching/3p2y/15_16/osman/Particle Simulation V0.6.4/CUDA/ParticleSystem.cu(492): warning C4244: 'argument' : conversion from 'float' to 'int', possible loss of data
     1>C:/SDL/teaching/3p2y/15_16/osman/Particle Simulation V0.6.4/CUDA/ParticleSystem.cu(581): warning C4244: 'initializing' : conversion from 'float' to 'int', possible loss of data
     1>C:/SDL/teaching/3p2y/15_16/osman/Particle Simulation V0.6.4/CUDA/ParticleSystem.cu(582): warning C4244: 'initializing' : conversion from 'float' to 'int', possible loss of data
     1>C:/SDL/teaching/3p2y/15_16/osman/Particle Simulation V0.6.4/CUDA/ParticleSystem.cu(584): warning C4244: 'initializing' : conversion from 'float' to 'int', possible loss of data
     1>C:/SDL/teaching/3p2y/15_16/osman/Particle Simulation V0.6.4/CUDA/ParticleSystem.cu(585): warning C4244: 'initializing' : conversion from 'float' to 'int', possible loss of data
     1>C:/SDL/teaching/3p2y/15_16/osman/Particle Simulation V0.6.4/CUDA/ParticleSystem.cu(586): warning C4244: 'initializing' : conversion from 'float' to 'int', possible loss of data
     1>C:/SDL/teaching/3p2y/15_16/osman/Particle Simulation V0.6.4/CUDA/ParticleSystem.cu(835): warning C4244: 'argument' : conversion from 'float' to 'int', possible loss of data
     1>C:/SDL/teaching/3p2y/15_16/osman/Particle Simulation V0.6.4/CUDA/ParticleSystem.cu(850): warning C4244: 'initializing' : conversion from 'float' to 'int', possible loss of data
     1>C:/SDL/teaching/3p2y/15_16/osman/Particle Simulation V0.6.4/CUDA/ParticleSystem.cu(851): warning C4244: 'initializing' : conversion from 'float' to 'int', possible loss of data
     1>C:/SDL/teaching/3p2y/15_16/osman/Particle Simulation V0.6.4/CUDA/ParticleSystem.cu(853): warning C4244: 'initializing' : conversion from 'float' to 'int', possible loss of data
     1>C:/SDL/teaching/3p2y/15_16/osman/Particle Simulation V0.6.4/CUDA/ParticleSystem.cu(854): warning C4244: 'initializing' : conversion from 'float' to 'int', possible loss of data
     1>C:/SDL/teaching/3p2y/15_16/osman/Particle Simulation V0.6.4/CUDA/ParticleSystem.cu(855): warning C4244: 'initializing' : conversion from 'float' to 'int', possible loss of data
     1>C:/SDL/teaching/3p2y/15_16/osman/Particle Simulation V0.6.4/CUDA/ParticleSystem.cu(872): warning C4244: '+=' : conversion from 'double' to 'float', possible loss of data
     1>C:/SDL/teaching/3p2y/15_16/osman/Particle Simulation V0.6.4/CUDA/ParticleSystem.cu(874): warning C4244: '+=' : conversion from 'double' to 'float', possible loss of data
     1>C:/SDL/teaching/3p2y/15_16/osman/Particle Simulation V0.6.4/CUDA/ParticleSystem.cu(897): warning C4244: '=' : conversion from 'double' to 'float', possible loss of data
     1>C:/SDL/teaching/3p2y/15_16/osman/Particle Simulation V0.6.4/CUDA/ParticleSystem.cu(898): warning C4244: '=' : conversion from 'double' to 'float', possible loss of data
     1>C:/SDL/teaching/3p2y/15_16/osman/Particle Simulation V0.6.4/CUDA/ParticleSystem.cu(899): warning C4244: '=' : conversion from 'double' to 'float', possible loss of data
     1>C:/SDL/teaching/3p2y/15_16/osman/Particle Simulation V0.6.4/CUDA/ParticleSystem.cu(1152): warning C4244: 'initializing' : conversion from 'double' to 'int', possible loss of data
       Link:
         C:\Program Files (x86)\Microsoft Visual Studio 11.0\VC\bin\link.exe /ERRORREPORT:PROMPT /OUT:"C:\SDL\teaching\3p2y\15_16\osman\Particle Simulation V0.6.4\Debug\Particle Simulation.exe" /INCREMENTAL /NOLOGO /LIBPATH:"C:\Program Files\NVIDIA GPU Computing Toolkit\CUDA\v7.5\lib\Win32" /LIBPATH:"C:\Program Files\NVIDIA GPU Computing Toolkit\CUDA\v7.5\lib\Win32" /LIBPATH:"C:\Program Files\NVIDIA GPU Computing Toolkit\CUDA\v7.5\lib\Win32" cudart_static.lib opengl32.lib glu32.lib kernel32.lib user32.lib gdi32.lib winspool.lib comdlg32.lib advapi32.lib shell32.lib ole32.lib oleaut32.lib uuid.lib odbc32.lib odbccp32.lib kernel32.lib user32.lib gdi32.lib winspool.lib comdlg32.lib advapi32.lib shell32.lib ole32.lib oleaut32.lib uuid.lib odbc32.lib odbccp32.lib /MANIFEST /MANIFESTUAC:"level='asInvoker' uiAccess='false'" /manifest:embed /DEBUG /PDB:"C:\SDL\teaching\3p2y\15_16\osman\Particle Simulation V0.6.4\Debug\Particle Simulation.pdb" /SUBSYSTEM:WINDOWS /TLBID:1 /DYNAMICBASE /NXCOMPAT /IMPLIB:"C:\SDL\teaching\3p2y\15_16\osman\Particle Simulation V0.6.4\Debug\Particle Simulation.lib" /MACHINE:X86 /SAFESEH Debug\ParticleSystem.cu.obj
         Debug\Camera.obj
         Debug\console.obj
         Debug\Cube.obj
         Debug\Sphere.obj
         "Debug\Particle Simulation.obj"
         Debug\ParticleRenderer.obj
         Debug\ParticleSystem.obj
         Debug\Shader.obj
         sample.vcxproj -> C:\SDL\teaching\3p2y\15_16\osman\Particle Simulation V0.6.4\Debug\Particle Simulation.exe
     1>Done Building Project "C:\SDL\teaching\3p2y\15_16\osman\Particle Simulation V0.6.4\sample.vcxproj" (Build target(s)).

Build succeeded.

Time Elapsed 00:00:32.50
